[
  {
    "GroupName": "Администраторы",
    "GroupPermission": 2
  },
  {
    "GroupName": "Пользователи",
    "GroupPermission": 0
  },
  {
    "GroupName": "Менеджеры",
    "GroupPermission": 1
  }
]
